^C:\USERS\NIKITA\DESKTOP\НОВАЯ ПАПКА (2)\LAB1\EXE4\EXE4\EXE4.CPP
C:\USERS\NIKITA\DESKTOP\Новая папка (2)\LAB1\EXE4\EXE4\DEBUG\VC142.PDB
C:\USERS\NIKITA\DESKTOP\Новая папка (2)\LAB1\EXE4\EXE4\DEBUG\VC142.IDB
C:\USERS\NIKITA\DESKTOP\Новая папка (2)\LAB1\EXE4\EXE4\DEBUG\EXE4.OBJ
^D:\ALGO\LAB1\EXE4\EXE4\EXE4.CPP
D:\ALGO\LAB1\EXE4\EXE4\DEBUG\VC142.PDB
D:\ALGO\LAB1\EXE4\EXE4\DEBUG\VC142.IDB
D:\ALGO\LAB1\EXE4\EXE4\DEBUG\EXE4.OBJ
