^C:\USERS\NIKITA\DESKTOP\НОВАЯ ПАПКА (2)\LAB1\EXE2\EXE2\EXE2.CPP
C:\USERS\NIKITA\DESKTOP\Новая папка (2)\LAB1\EXE2\EXE2\DEBUG\VC142.PDB
C:\USERS\NIKITA\DESKTOP\Новая папка (2)\LAB1\EXE2\EXE2\DEBUG\VC142.IDB
C:\USERS\NIKITA\DESKTOP\Новая папка (2)\LAB1\EXE2\EXE2\DEBUG\EXE2.OBJ
^D:\ALGO\LAB1\EXE2\EXE2\EXE2.CPP
D:\ALGO\LAB1\EXE2\EXE2\DEBUG\VC142.PDB
D:\ALGO\LAB1\EXE2\EXE2\DEBUG\VC142.IDB
D:\ALGO\LAB1\EXE2\EXE2\DEBUG\EXE2.OBJ
