^C:\USERS\NIKITA\DESKTOP\НОВАЯ ПАПКА (2)\LAB1\EXE2\EXE2\DEBUG\EXE2.OBJ
/OUT:"C:\USERS\NIKITA\DESKTOP\НОВАЯ ПАПКА (2)\LAB1\EXE2\DEBUG\EXE2.EXE" /INCREMENTAL /NOLOGO KERNEL32.LIB USER32.LIB GDI32.LIB WINSPOOL.LIB COMDLG32.LIB ADVAPI32.LIB SHELL32.LIB OLE32.LIB OLEAUT32.LIB UUID.LIB ODBC32.LIB ODBCCP32.LIB /MANIFEST /MANIFESTUAC:"level='asInvoker' uiAccess='false'" /manifest:embed /DEBUG:FASTLINK /PDB:"C:\USERS\NIKITA\DESKTOP\НОВАЯ ПАПКА (2)\LAB1\EXE2\DEBUG\EXE2.PDB" /SUBSYSTEM:CONSOLE /TLBID:1 /DYNAMICBASE /NXCOMPAT /IMPLIB:"C:\USERS\NIKITA\DESKTOP\НОВАЯ ПАПКА (2)\LAB1\EXE2\DEBUG\EXE2.LIB" /MACHINE:X86 DEBUG\EXE2.OBJ
^D:\ALGO\LAB1\EXE2\EXE2\DEBUG\EXE2.OBJ
/OUT:"D:\ALGO\LAB1\EXE2\DEBUG\EXE2.EXE" /INCREMENTAL /NOLOGO KERNEL32.LIB USER32.LIB GDI32.LIB WINSPOOL.LIB COMDLG32.LIB ADVAPI32.LIB SHELL32.LIB OLE32.LIB OLEAUT32.LIB UUID.LIB ODBC32.LIB ODBCCP32.LIB /MANIFEST /MANIFESTUAC:"level='asInvoker' uiAccess='false'" /manifest:embed /DEBUG:FASTLINK /PDB:"D:\ALGO\LAB1\EXE2\DEBUG\EXE2.PDB" /SUBSYSTEM:CONSOLE /TLBID:1 /DYNAMICBASE /NXCOMPAT /IMPLIB:"D:\ALGO\LAB1\EXE2\DEBUG\EXE2.LIB" /MACHINE:X86 DEBUG\EXE2.OBJ
